[
  {
    "Code": "BATH",
    "System": "http://thecaregiver.app/ValueSet/adls",
    "Display": "Bathing"
  },
  {
    "Code": "COOK",
    "System": "http://thecaregiver.app/ValueSet/adls",
    "Display": "Cooking"
  },
  {
    "Code": "DRESS",
    "System": "http://thecaregiver.app/ValueSet/adls",
    "Display": "Dressing"
  },
  {
    "Code": "DRIVE",
    "System": "http://thecaregiver.app/ValueSet/adls",
    "Display": "Driving"
  },
  {
    "Code": "EAT",
    "System": "http://thecaregiver.app/ValueSet/adls",
    "Display": "Eating"
  },
  {
    "Code": "FIT",
    "System": "http://thecaregiver.app/ValueSet/adls",
    "Display": "Fitness"
  },
  {
    "Code": "GROOM",
    "System": "http://thecaregiver.app/ValueSet/adls",
    "Display": "Grooming"
  },
  {
    "Code": "HOUSE",
    "System": "http://thecaregiver.app/ValueSet/adls",
    "Display": "Housework"
  },
  {
    "Code": "LAUNDRY",
    "System": "http://thecaregiver.app/ValueSet/adls",
    "Display": "Laundry"
  },
  {
    "Code": "FINANCE",
    "System": "http://thecaregiver.app/ValueSet/adls",
    "Display": "Finances"
  },
  {
    "Code": "TOILET",
    "System": "http://thecaregiver.app/ValueSet/adls",
    "Display": "Toileting"
  },
  {
    "Code": "SHOP",
    "System": "http://thecaregiver.app/ValueSet/adls",
    "Display": "Shopping"
  },
  {
    "Code": "REC",
    "System": "http://thecaregiver.app/ValueSet/adls",
    "Display": "Recreation"
  },
  {
    "Code": "10",
    "System": "http://hl7.org/fhir/ValueSet/service-type",
    "Display": "Personal Alarms/Alerts"
  },
  {
    "Code": "100",
    "System": "http://hl7.org/fhir/ValueSet/service-type",
    "Display": "Disability Information/Referral"
  },
  {
    "Code": "101",
    "System": "http://hl7.org/fhir/ValueSet/service-type",
    "Display": "Disability Support Packages"
  },
  {
    "Code": "102",
    "System": "http://hl7.org/fhir/ValueSet/service-type",
    "Display": "Disability Supported Accommodation"
  },
  {
    "Code": "104",
    "System": "http://hl7.org/fhir/ValueSet/service-type",
    "Display": "Hearing Aids & Equipment"
  },
  {
    "Code": "105",
    "System": "http://hl7.org/fhir/ValueSet/service-type",
    "Display": "Drug and/or Alcohol Counselling"
  },
  {
    "Code": "106",
    "System": "http://hl7.org/fhir/ValueSet/service-type",
    "Display": "Drug/Alcohol Information/Referral"
  },
  {
    "Code": "109",
    "System": "http://hl7.org/fhir/ValueSet/service-type",
    "Display": "Pharmacotherapy"
  },
  {
    "Code": "11",
    "System": "http://hl7.org/fhir/ValueSet/service-type",
    "Display": "Personal Care for Older Persons"
  },
  {
    "Code": "111",
    "System": "http://hl7.org/fhir/ValueSet/service-type",
    "Display": "Residential Alcohol/Drug Treatment"
  },
  {
    "Code": "117",
    "System": "http://hl7.org/fhir/ValueSet/service-type",
    "Display": "Emergency Medical"
  },
  {
    "Code": "120",
    "System": "http://hl7.org/fhir/ValueSet/service-type",
    "Display": "Work Safety/Accident Prevention"
  },
  {
    "Code": "124",
    "System": "http://hl7.org/fhir/ValueSet/service-type",
    "Display": "General Practice"
  },
  {
    "Code": "125",
    "System": "http://hl7.org/fhir/ValueSet/service-type",
    "Display": "Accommodation Placement/Support"
  },
  {
    "Code": "126",
    "System": "http://hl7.org/fhir/ValueSet/service-type",
    "Display": "Crisis/Emergency Accommodation"
  },
  {
    "Code": "132",
    "System": "http://hl7.org/fhir/ValueSet/service-type",
    "Display": "Legal Advocacy"
  },
  {
    "Code": "135",
    "System": "http://hl7.org/fhir/ValueSet/service-type",
    "Display": "Mental Health Assess/Triage/Crisis Response"
  },
  {
    "Code": "136",
    "System": "http://hl7.org/fhir/ValueSet/service-type",
    "Display": "Mental Health Case Management"
  },
  {
    "Code": "137",
    "System": "http://hl7.org/fhir/ValueSet/service-type",
    "Display": "Mental Health Information/Referral"
  },
  {
    "Code": "138",
    "System": "http://hl7.org/fhir/ValueSet/service-type",
    "Display": "Mental Health Inpatient Services"
  },
  {
    "Code": "139",
    "System": "http://hl7.org/fhir/ValueSet/service-type",
    "Display": "Mental Health Non-residential Rehab"
  },
  {
    "Code": "140",
    "System": "http://hl7.org/fhir/ValueSet/service-type",
    "Display": "Mental Health Residential Rehab/CCU"
  },
  {
    "Code": "141",
    "System": "http://hl7.org/fhir/ValueSet/service-type",
    "Display": "Psychiatry (Requires Referral)"
  },
  {
    "Code": "164",
    "System": "http://hl7.org/fhir/ValueSet/service-type",
    "Display": "Anesthesiology - Pain Medicine"
  },
  {
    "Code": "165",
    "System": "http://hl7.org/fhir/ValueSet/service-type",
    "Display": "Cardiology"
  },
  {
    "Code": "166",
    "System": "http://hl7.org/fhir/ValueSet/service-type",
    "Display": "Clinical Genetics"
  },
  {
    "Code": "167",
    "System": "http://hl7.org/fhir/ValueSet/service-type",
    "Display": "Clinical Pharmacology"
  },
  {
    "Code": "168",
    "System": "http://hl7.org/fhir/ValueSet/service-type",
    "Display": "Dermatology"
  },
  {
    "Code": "169",
    "System": "http://hl7.org/fhir/ValueSet/service-type",
    "Display": "Endocrinology"
  },
  {
    "Code": "170",
    "System": "http://hl7.org/fhir/ValueSet/service-type",
    "Display": "Gastroenterology & Hepatology"
  },
  {
    "Code": "171",
    "System": "http://hl7.org/fhir/ValueSet/service-type",
    "Display": "Geriatric Medicine"
  },
  {
    "Code": "172",
    "System": "http://hl7.org/fhir/ValueSet/service-type",
    "Display": "Immunology & Allergy"
  },
  {
    "Code": "173",
    "System": "http://hl7.org/fhir/ValueSet/service-type",
    "Display": "Infectious Diseases"
  },
  {
    "Code": "174",
    "System": "http://hl7.org/fhir/ValueSet/service-type",
    "Display": "Intensive Care Medicine"
  },
  {
    "Code": "175",
    "System": "http://hl7.org/fhir/ValueSet/service-type",
    "Display": "Medical Oncology"
  },
  {
    "Code": "176",
    "System": "http://hl7.org/fhir/ValueSet/service-type",
    "Display": "Nephrology"
  },
  {
    "Code": "177",
    "System": "http://hl7.org/fhir/ValueSet/service-type",
    "Display": "Neurology"
  },
  {
    "Code": "178",
    "System": "http://hl7.org/fhir/ValueSet/service-type",
    "Display": "Occupational Medicine"
  },
  {
    "Code": "179",
    "System": "http://hl7.org/fhir/ValueSet/service-type",
    "Display": "Palliative Medicine"
  },
  {
    "Code": "180",
    "System": "http://hl7.org/fhir/ValueSet/service-type",
    "Display": "Public Health Medicine"
  },
  {
    "Code": "181",
    "System": "http://hl7.org/fhir/ValueSet/service-type",
    "Display": "Rehabilitation Medicine"
  },
  {
    "Code": "182",
    "System": "http://hl7.org/fhir/ValueSet/service-type",
    "Display": "Rheumatology"
  },
  {
    "Code": "183",
    "System": "http://hl7.org/fhir/ValueSet/service-type",
    "Display": "Sleep Medicine"
  },
  {
    "Code": "184",
    "System": "http://hl7.org/fhir/ValueSet/service-type",
    "Display": "Thoracic Medicine"
  },
  {
    "Code": "185",
    "System": "http://hl7.org/fhir/ValueSet/service-type",
    "Display": "Gynecological Oncology"
  },
  {
    "Code": "186",
    "System": "http://hl7.org/fhir/ValueSet/service-type",
    "Display": "Obstetrics & Gynecology"
  },
  {
    "Code": "21",
    "System": "http://hl7.org/fhir/ValueSet/service-type",
    "Display": "Hydrotherapy"
  },
  {
    "Code": "210",
    "System": "http://hl7.org/fhir/ValueSet/service-type",
    "Display": "Diagnostic Ultrasound"
  },
  {
    "Code": "211",
    "System": "http://hl7.org/fhir/ValueSet/service-type",
    "Display": "Magnetic Resonance Imaging (MRI)"
  },
  {
    "Code": "212",
    "System": "http://hl7.org/fhir/ValueSet/service-type",
    "Display": "Nuclear Medicine"
  },
  {
    "Code": "213",
    "System": "http://hl7.org/fhir/ValueSet/service-type",
    "Display": "Obstetric/Gynecological Ultrasound"
  },
  {
    "Code": "214",
    "System": "http://hl7.org/fhir/ValueSet/service-type",
    "Display": "Radiation Oncology"
  },
  {
    "Code": "215",
    "System": "http://hl7.org/fhir/ValueSet/service-type",
    "Display": "Cardiothoracic Surgery"
  },
  {
    "Code": "216",
    "System": "http://hl7.org/fhir/ValueSet/service-type",
    "Display": "Neurosurgery"
  },
  {
    "Code": "217",
    "System": "http://hl7.org/fhir/ValueSet/service-type",
    "Display": "Ophthalmology"
  },
  {
    "Code": "218",
    "System": "http://hl7.org/fhir/ValueSet/service-type",
    "Display": "Orthopedic Surgery"
  },
  {
    "Code": "219",
    "System": "http://hl7.org/fhir/ValueSet/service-type",
    "Display": "Otolaryngology/Head & Neck Surgery"
  },
  {
    "Code": "220",
    "System": "http://hl7.org/fhir/ValueSet/service-type",
    "Display": "Plastic & Reconstructive Surgery"
  },
  {
    "Code": "221",
    "System": "http://hl7.org/fhir/ValueSet/service-type",
    "Display": "Surgery - General"
  },
  {
    "Code": "222",
    "System": "http://hl7.org/fhir/ValueSet/service-type",
    "Display": "Urology"
  },
  {
    "Code": "223",
    "System": "http://hl7.org/fhir/ValueSet/service-type",
    "Display": "Vascular Surgery"
  },
  {
    "Code": "226",
    "System": "http://hl7.org/fhir/ValueSet/service-type",
    "Display": "Ambulance"
  },
  {
    "Code": "23",
    "System": "http://hl7.org/fhir/ValueSet/service-type",
    "Display": "Physical Activity & Recreation"
  },
  {
    "Code": "230",
    "System": "http://hl7.org/fhir/ValueSet/service-type",
    "Display": "Patient Transport"
  },
  {
    "Code": "236",
    "System": "http://hl7.org/fhir/ValueSet/service-type",
    "Display": "Accident"
  },
  {
    "Code": "245",
    "System": "http://hl7.org/fhir/ValueSet/service-type",
    "Display": "Aids"
  },
  {
    "Code": "250",
    "System": "http://hl7.org/fhir/ValueSet/service-type",
    "Display": "Anxiety"
  },
  {
    "Code": "252",
    "System": "http://hl7.org/fhir/ValueSet/service-type",
    "Display": "Assessment"
  },
  {
    "Code": "254",
    "System": "http://hl7.org/fhir/ValueSet/service-type",
    "Display": "Asthma"
  },
  {
    "Code": "262",
    "System": "http://hl7.org/fhir/ValueSet/service-type",
    "Display": "Bipolar"
  },
  {
    "Code": "274",
    "System": "http://hl7.org/fhir/ValueSet/service-type",
    "Display": "Cancer"
  },
  {
    "Code": "279",
    "System": "http://hl7.org/fhir/ValueSet/service-type",
    "Display": "Case Management"
  },
  {
    "Code": "295",
    "System": "http://hl7.org/fhir/ValueSet/service-type",
    "Display": "Community Transport"
  },
  {
    "Code": "300",
    "System": "http://hl7.org/fhir/ValueSet/service-type",
    "Display": "Continuing Care Serv"
  },
  {
    "Code": "308",
    "System": "http://hl7.org/fhir/ValueSet/service-type",
    "Display": "Crisis Assessment And Treatment Services (Cats)"
  },
  {
    "Code": "309",
    "System": "http://hl7.org/fhir/ValueSet/service-type",
    "Display": "Crisis Assistance"
  },
  {
    "Code": "31",
    "System": "http://hl7.org/fhir/ValueSet/service-type",
    "Display": "Relaxation Therapy"
  },
  {
    "Code": "313",
    "System": "http://hl7.org/fhir/ValueSet/service-type",
    "Display": "Dental Hygiene"
  },
  {
    "Code": "314",
    "System": "http://hl7.org/fhir/ValueSet/service-type",
    "Display": "Dentistry"
  },
  {
    "Code": "315",
    "System": "http://hl7.org/fhir/ValueSet/service-type",
    "Display": "Dentures"
  },
  {
    "Code": "316",
    "System": "http://hl7.org/fhir/ValueSet/service-type",
    "Display": "Depression"
  },
  {
    "Code": "317",
    "System": "http://hl7.org/fhir/ValueSet/service-type",
    "Display": "Detoxification"
  },
  {
    "Code": "318",
    "System": "http://hl7.org/fhir/ValueSet/service-type",
    "Display": "Diabetes"
  },
  {
    "Code": "320",
    "System": "http://hl7.org/fhir/ValueSet/service-type",
    "Display": "Dieticians"
  },
  {
    "Code": "324",
    "System": "http://hl7.org/fhir/ValueSet/service-type",
    "Display": "Doctors"
  },
  {
    "Code": "328",
    "System": "http://hl7.org/fhir/ValueSet/service-type",
    "Display": "Eating Disorder"
  },
  {
    "Code": "34",
    "System": "http://hl7.org/fhir/ValueSet/service-type",
    "Display": "Mental Health Advocacy"
  },
  {
    "Code": "349",
    "System": "http://hl7.org/fhir/ValueSet/service-type",
    "Display": "General Practitioner"
  },
  {
    "Code": "351",
    "System": "http://hl7.org/fhir/ValueSet/service-type",
    "Display": "Grief"
  },
  {
    "Code": "352",
    "System": "http://hl7.org/fhir/ValueSet/service-type",
    "Display": "Grief Counselling"
  },
  {
    "Code": "354",
    "System": "http://hl7.org/fhir/ValueSet/service-type",
    "Display": "Heart Disease"
  },
  {
    "Code": "356",
    "System": "http://hl7.org/fhir/ValueSet/service-type",
    "Display": "High Blood Pressure"
  },
  {
    "Code": "361",
    "System": "http://hl7.org/fhir/ValueSet/service-type",
    "Display": "Hospital Services"
  },
  {
    "Code": "362",
    "System": "http://hl7.org/fhir/ValueSet/service-type",
    "Display": "Hospital To Home"
  },
  {
    "Code": "371",
    "System": "http://hl7.org/fhir/ValueSet/service-type",
    "Display": "Injury"
  },
  {
    "Code": "382",
    "System": "http://hl7.org/fhir/ValueSet/service-type",
    "Display": "Medical Services"
  },
  {
    "Code": "383",
    "System": "http://hl7.org/fhir/ValueSet/service-type",
    "Display": "Medical Specialists"
  },
  {
    "Code": "384",
    "System": "http://hl7.org/fhir/ValueSet/service-type",
    "Display": "Medication Administer"
  },
  {
    "Code": "389",
    "System": "http://hl7.org/fhir/ValueSet/service-type",
    "Display": "Multiple Sclerosis"
  },
  {
    "Code": "393",
    "System": "http://hl7.org/fhir/ValueSet/service-type",
    "Display": "Obesity"
  },
  {
    "Code": "398",
    "System": "http://hl7.org/fhir/ValueSet/service-type",
    "Display": "Outreach Service"
  },
  {
    "Code": "401",
    "System": "http://hl7.org/fhir/ValueSet/service-type",
    "Display": "Pap Smear"
  },
  {
    "Code": "406",
    "System": "http://hl7.org/fhir/ValueSet/service-type",
    "Display": "Phobias"
  },
  {
    "Code": "413",
    "System": "http://hl7.org/fhir/ValueSet/service-type",
    "Display": "Prescriptions"
  },
  {
    "Code": "414",
    "System": "http://hl7.org/fhir/ValueSet/service-type",
    "Display": "Primary Mental Health"
  },
  {
    "Code": "417",
    "System": "http://hl7.org/fhir/ValueSet/service-type",
    "Display": "Psychiatric"
  },
  {
    "Code": "418",
    "System": "http://hl7.org/fhir/ValueSet/service-type",
    "Display": "Psychiatric Disability"
  },
  {
    "Code": "454",
    "System": "http://hl7.org/fhir/ValueSet/service-type",
    "Display": "Stroke"
  },
  {
    "Code": "460",
    "System": "http://hl7.org/fhir/ValueSet/service-type",
    "Display": "Terminal Illness"
  },
  {
    "Code": "473",
    "System": "http://hl7.org/fhir/ValueSet/service-type",
    "Display": "Wound Management"
  },
  {
    "Code": "479",
    "System": "http://hl7.org/fhir/ValueSet/service-type",
    "Display": "Hepatology"
  },
  {
    "Code": "480",
    "System": "http://hl7.org/fhir/ValueSet/service-type",
    "Display": "Gastroenterology"
  },
  {
    "Code": "481",
    "System": "http://hl7.org/fhir/ValueSet/service-type",
    "Display": "Gynecology"
  },
  {
    "Code": "482",
    "System": "http://hl7.org/fhir/ValueSet/service-type",
    "Display": "Obstetrics"
  },
  {
    "Code": "483",
    "System": "http://hl7.org/fhir/ValueSet/service-type",
    "Display": "Further Desc. - Specialist Surgical"
  },
  {
    "Code": "485",
    "System": "http://hl7.org/fhir/ValueSet/service-type",
    "Display": "Family Violence"
  },
  {
    "Code": "5",
    "System": "http://hl7.org/fhir/ValueSet/service-type",
    "Display": "Case Management for Older Persons"
  },
  {
    "Code": "501",
    "System": "http://hl7.org/fhir/ValueSet/service-type",
    "Display": "Cancer Services"
  },
  {
    "Code": "52",
    "System": "http://hl7.org/fhir/ValueSet/service-type",
    "Display": "Chiropractic"
  },
  {
    "Code": "53",
    "System": "http://hl7.org/fhir/ValueSet/service-type",
    "Display": "Dietetics"
  },
  {
    "Code": "532",
    "System": "http://hl7.org/fhir/ValueSet/service-type",
    "Display": "Diabetes Education s"
  },
  {
    "Code": "533",
    "System": "http://hl7.org/fhir/ValueSet/service-type",
    "Display": "Cardiac Rehabilitation"
  },
  {
    "Code": "537",
    "System": "http://hl7.org/fhir/ValueSet/service-type",
    "Display": "Medication Reviews"
  },
  {
    "Code": "541",
    "System": "http://hl7.org/fhir/ValueSet/service-type",
    "Display": "Crisis - Mental Health"
  },
  {
    "Code": "546",
    "System": "http://hl7.org/fhir/ValueSet/service-type",
    "Display": "Veterans Services"
  },
  {
    "Code": "55",
    "System": "http://hl7.org/fhir/ValueSet/service-type",
    "Display": "Health Advocacy/Liaison Service"
  },
  {
    "Code": "550",
    "System": "http://hl7.org/fhir/ValueSet/service-type",
    "Display": "Dementia Care"
  },
  {
    "Code": "551",
    "System": "http://hl7.org/fhir/ValueSet/service-type",
    "Display": "Alzheimer"
  },
  {
    "Code": "552",
    "System": "http://hl7.org/fhir/ValueSet/service-type",
    "Display": "Drug and/or Alcohol Support Groups"
  },
  {
    "Code": "554",
    "System": "http://hl7.org/fhir/ValueSet/service-type",
    "Display": "Chronic Disease Management"
  },
  {
    "Code": "556",
    "System": "http://hl7.org/fhir/ValueSet/service-type",
    "Display": "Walk-in Centre /Non-Emergency"
  },
  {
    "Code": "56",
    "System": "http://hl7.org/fhir/ValueSet/service-type",
    "Display": "Health Information/Referral"
  },
  {
    "Code": "57",
    "System": "http://hl7.org/fhir/ValueSet/service-type",
    "Display": "Immunization"
  },
  {
    "Code": "580",
    "System": "http://hl7.org/fhir/ValueSet/service-type",
    "Display": "Social Work"
  },
  {
    "Code": "589",
    "System": "http://hl7.org/fhir/ValueSet/service-type",
    "Display": "Home Medicine Review"
  },
  {
    "Code": "593",
    "System": "http://hl7.org/fhir/ValueSet/service-type",
    "Display": "Falls Prevention"
  },
  {
    "Code": "6",
    "System": "http://hl7.org/fhir/ValueSet/service-type",
    "Display": "Delivered Meals (Meals On Wheels)"
  },
  {
    "Code": "60",
    "System": "http://hl7.org/fhir/ValueSet/service-type",
    "Display": "Nutrition"
  },
  {
    "Code": "605",
    "System": "http://hl7.org/fhir/ValueSet/service-type",
    "Display": "Assist-Personal Activities"
  },
  {
    "Code": "61",
    "System": "http://hl7.org/fhir/ValueSet/service-type",
    "Display": "Occupational Therapy"
  },
  {
    "Code": "616",
    "System": "http://hl7.org/fhir/ValueSet/service-type",
    "Display": "Equipment Special Assess Setup"
  },
  {
    "Code": "618",
    "System": "http://hl7.org/fhir/ValueSet/service-type",
    "Display": "Home Modification"
  },
  {
    "Code": "619",
    "System": "http://hl7.org/fhir/ValueSet/service-type",
    "Display": "Household Tasks"
  },
  {
    "Code": "62",
    "System": "http://hl7.org/fhir/ValueSet/service-type",
    "Display": "Optometry"
  },
  {
    "Code": "624",
    "System": "http://hl7.org/fhir/ValueSet/service-type",
    "Display": "Physical Wellbeing"
  },
  {
    "Code": "625",
    "System": "http://hl7.org/fhir/ValueSet/service-type",
    "Display": "Plan Management"
  },
  {
    "Code": "628",
    "System": "http://hl7.org/fhir/ValueSet/service-type",
    "Display": "Vehicle modifications"
  },
  {
    "Code": "64",
    "System": "http://hl7.org/fhir/ValueSet/service-type",
    "Display": "Pharmacy"
  },
  {
    "Code": "65",
    "System": "http://hl7.org/fhir/ValueSet/service-type",
    "Display": "Physiotherapy"
  },
  {
    "Code": "66",
    "System": "http://hl7.org/fhir/ValueSet/service-type",
    "Display": "Podiatry"
  },
  {
    "Code": "68",
    "System": "http://hl7.org/fhir/ValueSet/service-type",
    "Display": "Speech Pathology/Therapy"
  },
  {
    "Code": "71",
    "System": "http://hl7.org/fhir/ValueSet/service-type",
    "Display": "Family Counselling/Therapy"
  },
  {
    "Code": "73",
    "System": "http://hl7.org/fhir/ValueSet/service-type",
    "Display": "Financial Counselling"
  },
  {
    "Code": "8",
    "System": "http://hl7.org/fhir/ValueSet/service-type",
    "Display": "Home Care/Housekeeping Assistance"
  },
  {
    "Code": "88",
    "System": "http://hl7.org/fhir/ValueSet/service-type",
    "Display": "General Dental"
  },
  {
    "Code": "89",
    "System": "http://hl7.org/fhir/ValueSet/service-type",
    "Display": "Oral Medicine"
  },
  {
    "Code": "9",
    "System": "http://hl7.org/fhir/ValueSet/service-type",
    "Display": "Home Maintenance and Repair"
  },
  {
    "Code": "90",
    "System": "http://hl7.org/fhir/ValueSet/service-type",
    "Display": "Oral Surgery"
  },
  {
    "Code": "91",
    "System": "http://hl7.org/fhir/ValueSet/service-type",
    "Display": "Orthodontic"
  },
  {
    "Code": "93",
    "System": "http://hl7.org/fhir/ValueSet/service-type",
    "Display": "Periodontics"
  },
  {
    "Code": "96",
    "System": "http://hl7.org/fhir/ValueSet/service-type",
    "Display": "Disability Advocacy"
  },
  {
    "Code": "97",
    "System": "http://hl7.org/fhir/ValueSet/service-type",
    "Display": "Disability Aids & Equipment"
  },
  {
    "Code": "98",
    "System": "http://hl7.org/fhir/ValueSet/service-type",
    "Display": "Disability Case Management"
  },
  {
    "Code": "99",
    "System": "http://hl7.org/fhir/ValueSet/service-type",
    "Display": "Disability Day Programs/Activities"
  }
]