<svg width="24" height="24" viewBox="0 0 24 24" fill="none" xmlns="http://www.w3.org/2000/svg">
<path fill-rule="evenodd" clip-rule="evenodd" d="M20 11.182C20 15.723 16.587 19.969 12 21C7.413 19.969 4 15.723 4 11.182V7.24299C4 6.43099 4.491 5.69899 5.243 5.39199L10.243 3.34599C11.369 2.88499 12.631 2.88499 13.757 3.34599L18.757 5.39199C19.509 5.69999 20 6.43099 20 7.24299V11.182V11.182Z" stroke="#323232" stroke-width="1.5" stroke-linecap="round" stroke-linejoin="round"/>
<path fill-rule="evenodd" clip-rule="evenodd" d="M12 9.642C12.268 9.34 12.731 9 13.437 9C14.671 9 15.5 10.117 15.5 11.158C15.5 13.333 12.692 15 12 15C11.308 15 8.5 13.333 8.5 11.158C8.5 10.117 9.328 9 10.563 9C11.269 9 11.732 9.34 12 9.642Z" stroke="#323232" stroke-width="1.5" stroke-linecap="round" stroke-linejoin="round"/>
</svg>
