<svg width="24" height="24" viewBox="0 0 24 24" fill="none" xmlns="http://www.w3.org/2000/svg">
    <path
        d="M0 12C0 18.6271 5.37288 24 12 24C18.6271 24 24 18.6271 24 12C24 5.37288 18.6271 0 12 0C5.37288 0 0 5.37288 0 12ZM12.2683 6.72923C12.3543 6.81461 12.4228 6.91611 12.4696 7.02793C12.5165 7.13975 12.5408 7.25971 12.5413 7.38094C12.5418 7.50218 12.5184 7.62233 12.4724 7.73452C12.4265 7.84671 12.3589 7.94875 12.2735 8.03481L9.255 11.0769H16.9615C17.2064 11.0769 17.4411 11.1742 17.6143 11.3473C17.7874 11.5204 17.8846 11.7552 17.8846 12C17.8846 12.2448 17.7874 12.4796 17.6143 12.6527C17.4411 12.8258 17.2064 12.9231 16.9615 12.9231H9.255L12.2735 15.9652C12.3588 16.0513 12.4264 16.1535 12.4723 16.2657C12.5183 16.378 12.5416 16.4982 12.5411 16.6195C12.5406 16.7408 12.5161 16.8607 12.4692 16.9726C12.4223 17.0844 12.3538 17.186 12.2677 17.2713C12.1816 17.3567 12.0794 17.4243 11.9672 17.4702C11.8549 17.5162 11.7347 17.5395 11.6134 17.539C11.4921 17.5384 11.3721 17.514 11.2603 17.4671C11.1484 17.4202 11.0469 17.3517 10.9615 17.2656L6.38135 12.6502C6.20977 12.4773 6.1135 12.2436 6.1135 12C6.1135 11.7564 6.20977 11.5227 6.38135 11.3498L10.9615 6.73442C11.0469 6.64817 11.1485 6.57961 11.2604 6.53266C11.3724 6.48571 11.4925 6.46129 11.6138 6.46081C11.7352 6.46033 11.8555 6.48379 11.9678 6.52985C12.0801 6.5759 12.1822 6.64366 12.2683 6.72923Z"
        fill="#B1B1B1" />
</svg>
